<?xml version="1.0" encoding="UTF-8" standalone="no"?>
<!-- Created with Inkscape (http://www.inkscape.org/) -->

<svg
   xmlns:dc="http://purl.org/dc/elements/1.1/"
   xmlns:cc="http://creativecommons.org/ns#"
   xmlns:rdf="http://www.w3.org/1999/02/22-rdf-syntax-ns#"
   xmlns:svg="http://www.w3.org/2000/svg"
   xmlns="http://www.w3.org/2000/svg"
   xmlns:xlink="http://www.w3.org/1999/xlink"
   xmlns:sodipodi="http://sodipodi.sourceforge.net/DTD/sodipodi-0.dtd"
   xmlns:inkscape="http://www.inkscape.org/namespaces/inkscape"
   version="1.1"
   id="svg2"
   width="26.458334mm"
   height="35.56876mm"
   viewBox="0 0 100 134.43311"
   sodipodi:docname="Isaak.svg"
   inkscape:version="0.92.3 (2405546, 2018-03-11)">
  <metadata
     id="metadata8">
    <rdf:RDF>
      <cc:Work
         rdf:about="">
        <dc:format>image/svg+xml</dc:format>
        <dc:type
           rdf:resource="http://purl.org/dc/dcmitype/StillImage" />
        <dc:title></dc:title>
      </cc:Work>
    </rdf:RDF>
  </metadata>
  <defs
     id="defs6" />
  <sodipodi:namedview
     pagecolor="#ffffff"
     bordercolor="#666666"
     borderopacity="1"
     objecttolerance="10"
     gridtolerance="10"
     guidetolerance="10"
     inkscape:pageopacity="0"
     inkscape:pageshadow="2"
     inkscape:window-width="1920"
     inkscape:window-height="1137"
     id="namedview4"
     showgrid="false"
     inkscape:zoom="1.026087"
     inkscape:cx="-406.88557"
     inkscape:cy="-194.97367"
     inkscape:window-x="-8"
     inkscape:window-y="-8"
     inkscape:window-maximized="1"
     inkscape:current-layer="svg2"
     units="mm"
     fit-margin-top="0"
     fit-margin-left="0"
     fit-margin-right="0"
     fit-margin-bottom="0" />
  <image
     width="100"
     height="100"
     preserveAspectRatio="none"
     xlink:href="data:image/png;base64,iVBORw0KGgoAAAANSUhEUgAAAOYAAADmCAYAAADBavm7AAAYqElEQVR4nOzdCXAU153H8d/rmZHQ LXRYIJAM2AIdjsGAOG1YjLPeGMuAHZMQx9naWm9S8cVhWIOvEJzE4AMC8W7KlcS1SSqXYyfhiINx OG0MiQjINggQRIjDgBBIgJA00sz025KYsQWWQD3Tr9/r7v+ninIVkbr/RfTXHN+eGS+IfXHOMlZX fhkMi8Hxu9TUxCU1kwb6ZY9FYsdkD0Cik7V23whd11cAbHzk7zhwiHH+VP3Ukt/LnY7EihbTZlL+ sC/T58VzAH8EgKebL9sA8Fn195TstXg8YhJaTLt4bacvo0/iw9DwXXCkXfPrGQLg7MfcH/dcw4wb zlsyIzENLaYNZP6p8g6u4YcASqL49rPgeL6+tehVzGAhAeMRAWgxFZa9au+NIU37ATi/P9ZjcWAX uPZ4w9TCbeZMR0SixVRQzjsfJgX83vmMsQUciDfx0ByMvcmhz2soKzlq4nGJyWgxVfJp/mCvAMgT eKZmcP4S5RV10WIqoiN/cL4SHOOsOidj+CfX+ULKK+qhxZQsZc2BLB/XnwX4owA0SWNs4BpmN9xd vEfS+ckVaDFlieQPhsUAUmWPQ3lFLbSYEoTzxwoAxbJn6QLlFQXQYlooe01lgc6xjAN3y57lWjry CuOzGspK3pc9ixvRYlpAYP4QjfKKJLSYInHOMtfue5BzLAXQR/Y4MaC8YjFaTEFk5A/RKK9YhxbT ZFlvVfbVfXwRwB6SmD8EYxu5xmdRXhGHFtMsquUP8YIA+1/KK2LQYppA8fwhGuUVAWgxY2Cn/CEa 5RVz0WJGwcb5QzgGrA158Oi5KcVHZM9iZ7SYRjgnf4hGeSVGtJg9lLVq/0hd01c4KX9Y4BhjeOZs WfEvZA9iN7SY1+CO/CEa5RWjaDG74778IVoQ4K8HmPfpxrIhZ2QPozpazC64PH+IVg+OxZRXro4W s5PsNZUFIWA5OKbInsXpGLBb77h7W/Ke7FlURItJ+UMqyitdc/diUv5QBeWVK7h2MTvyB9NXAhgr exbyKcorYa5bTMofdsA2ch2zG6YVfSx7Elncs5iUP+zG1XnFFYsZzh/td1uLZM9CDHNlXnH0YlL+ cA635RVHLiblD+dyS15x1mJ+lj9ebN9P2eMQYRyfVxyzmJQ/XMmxecX2i0n5g3DGNyGkzXJSXrHv YlL+IJdzVF6x5WJS/iBX4Yi8YqvFzPrzvsG6zpdR/iDXxFHBPfxxu+YVWyxm9ht7k0PxmEf5gxhl 17yi9mJS/iDmsF1eUXYxM1fvKeXQ2h9HjpE9C3EIzo8zjT1th7yi3GJmrdqfq7PQdyh/EFE68oru md0wtfAj2bN0R53FpPxBrKV0XlFiMSl/EImUzCtSF7Mjf4T4cgB3yZyDEHBU6MCsc1OLt8oeBbIW M/2Pu9M9nvgFHJgDIE7GDIR0pSOvhNhj56YX1Uiew0KUP4g9dOSVxNbUpcdn5LXIGMCyxaT8QWxH Yl4RvphZq/bnhpi+hAFfl/2YlpBocGAzuDbLyrwiblE+yx/PA0gRdh5CrKFz4FcBr++Ji3cV1Ik+ mZDF7L1mX5kGvpxz3CDi+IRIZEleMXUxKX8QF9kHxmbXlxWtF3FwUxaT8gdxK1F5JbbFXMS1zBH7 vk75g7hcCwNWan7+vboZJRfNOGDUF4l/87XXfKOGbH2Tc/yclpK4XAIHnhyUFf/u35ub88w4oDfa byxsavKWNO+eVhefvO2XfUYMbvTGZ5sxECF2k+DRml/8Qk75zP5pIxlj7TdSx2I9Zqwvq2LZrRfH zz2yNW5q3Z4tXq63xToQIXbyQF56ec2XBtd/LS99ImMsyazjRn2LeTmeNuzCiYk3NZ6qWZNVUvdR at9Sc45LiJpKeycc+M2ofH/vOE3Iz7pJixk+GNcHTK/7eMDt9VXlv+pXmlPnS8w38/iEyJbh8zb8 38jcj8dnJY0H4BF1HiHvEJAWai19+Oj7fb/xSfnWeD3YKOIchFjJy1jw2cLs9w7ceSMfn5U0QeRS wuxbzCv4BvobJvz34Y21H6QPrNiYeeN4DkZvFUJs564+SRU/GZGX2Etjt1l1TpGL2UEDcm49dzhn 1IWjlb/LuUWvTsy4SfQ5CTFDXoL35G9H51cXpsSPt/rcwhczIk4PFT94cienvEJUl+DRml8d2qd8 Wr+0UQAsX0pIeBe6jrwyp2Zz4pdPVWzxcb3V4vMTclWR/DGtX9rE9h2VNYdlt5idMcaSSppOTxxy eCPlFaIE0fnDKCmL+enJw3nliw1Vu37VZ3j6qfiUQTLnIe5jVf4wSolnSZODrcO/dXx7HuUVYhWr 84dRSixmWEdeebJmU/PkswffY+C67IGIM93VJ6niyL8NOTy7IOs2jbEM2fN0Repd2a4wzjvllWF6 dWIm5RViivxE34nfjMo7LCN/GKXcYkZcyiv/oLxCYtYpf4wGkCt7np5Q6a5sVyivkJiE80dDOH/0 kj1PTyl7i9lZJK8UHt5Qsza7pK4iJVeJp7SJukZlJO7/dWm/tt5xXlv+rNhiMSM8nA+YenrPgMn1 BymvkC6pmj+MUv2ubJcor5ArqZ4/jLLlYoZRXiEd7JA/jLLVXdmuRPJK6flj+97oMzREecU97JQ/ jLL9YkbE82DRZ3llZEGjN+462TMRMeyYP4yy813ZroTfHGxzEuUVZ7Jr/jDKMbeYV6C84jB2zx9G OXUxO3TOK7/uOyLtZFwyfciRzTglfxjltLuyXUoOtg7/5rEP8imv2IfT8odRrljMMMorNnF339Td R740uMZJ+cMoR9+V7QrlFXU5OX8Y5aZbzMvE82DRtxsPNL5UlHXiunjX/X5SSoJHwxMFmS3lt9/Y vpRjZc+jAlf+RHo0rWbyHZPrCouLO34IvjowEz86dBYrDp1Fq85lj+cqd+YkY+kX+iAvwZcQfke6 /QDaANwsezaZ3LaYTQWDC3b+6513jvF4PAMif5no0fDkkGzc3z8Nz+ytxTu1pnzEIbmKm9N64YWb cjAmI/HK/6kw/N/y8MUD/ayfTj63LCbPzMr8YNq06QVJyUkTu/uiQUlx+PWoPGypa8LCvbU40EjX J5itt8+D+YOz8NDADHiu/rHJpQCaAWwBMNrJFxN0xfGL6YuL2zfl7imh/Pz8Hj+hMDE7CVsmDMTr NQ144UAdGoP0BG6svIzhgfw0PFN4HTLielw+2m9O23+RngBwWNabL8vg2MVkjNWOGDmyauy4seMZ M/6ZKT6N4VuDMjAtNxVLq+rwy6PnQA8/o3NbVlLH3dailPhoD5Eb/lMBIAlAgbkTqseJixno16// 9rKpZbfExcXF/CEwOb28WHZzX/z79b2xYM8p/L2+xZwpXWBgUhyeLczG1NxUsw45DEAQwHsASgA4 tnE6ajETEhN3TZs+LT07O3uC2ccemtYLb48fgDeOn8eiytM43Ro0+xSOkeDR8NgNGZhdkIV47eoP JKPQ/jPb/gu3AcDW8N1bx10V5IjF9Hi8NZMnT6orLC4WeoFz+4/YV/qnoaxvCuWVLrT/+9yTm4rF xdehf4JP9Ol6A5jg1Lxi98XsMn+IRnnl866SP0RzZF6x62Jeyh/Tpw9OSuo+f4hGeQUdz7DOK+hR /hDNUXnFdosZ54urvKtsim4kf4jmxrzi0xj+4/reWDgkG6k+Za7sjOSVkwCq7ZxXbLOYseYP0SJ5 ZXq/VCw54Oy8MiErCT+ILX+I1jf8x7Z5xQ6LaWr+EO26eOfmFQH5QzTb5hWlF1Nk/hAtkldWn7iA ZytP45OWgOyRoiY4f4hmy7yi5GJeyh+T6wqLC239/i7tP8Ltty5fzEm2ZV6xOH+IFskrBwD42393 yh7oalRbTCn5Q7RIXpnRPw3P76/DqhMXZI90TRLzh2hDwv8tDz8O7S95ni6psphK5A/R2h+jvT6i H7bkp+OpvbXYr2BeUSh/iNY5r4xqv8cue6DOpC9mnC+uckrZ3Xpefp5tn9o2amJ2EjaH88qSqjpc CMjPK4rmD9E655VdKuUVaYvJGKsdM27sodLS0nHhhzOuEskr9/dPw0tVZ/DTmnppeWVC+NUfherm D9E655X2ZR0seyAZi9k5fyjzG0qW9ruO7Uvx1bw0LNxzCn+zMK/YMH+IpkxesXQxU5JTyqfdNz2n d+/etssfog1N64U/W5RXEj0aHrVv/hBNibxiyWI6JX+IJjqvOCx/iCY1rwhdTAZ2vqikqGLS7beP dVL+EE1EXrk5rReW3NQHozOUevLRDqTkFVGLqWdmZW53ev4QLZJXtl6fjoV7ossrLsoforXf22sJ 55WR4WtwhTF9Md2YP0SbkGU8r7g0f4iW0CmvVIjMK6Ytptvzh2hX5pWf1dQj1M3DT8ofwgnPK2Ys Zlu/fv13lE0tG075Q7xIXpmZl9bx6pXOeYXyh+WGtT9sA7At/E4KmWYdOKbFTE1J3TH13mn9KH9Y 7+ZwXnnj+Hm8UnUGD+Sn49uDMhBH+cNqWvgu7bnwgpryNHrUizlnzhyE+459Xi7hMJE3B2v/Q+Rq aWnhb699O3Tq9Cm5ixlWCiAQDrHDASSbMRQhdqHrenDH9h3b/7FzZzHnfILGdVOeaTPjMaYvHGJr AXwIgJ78Ia5QXV1dse7tvyQGg0HT31nDzFySE/5TGX5ATB8ISxypsbHx5OpVq6rPnjmrfi7ppDj8 uHNb+GnkbAHnIMRywWCw+d3168sPVh0cJfolYqKu/GHhwc+Hr5QYCyBO0LkIEa5y797yjRs29tV1 3ZIr2URfxJ4WvlKiBkBd+MkiQmzj5MmTB9asWu33+/2W/uxa9bKvAeE/uwCkAxhk0XkJiUpLS0vD 22vf/viTT44792VfnQzvlFduAZBi8fkJuapO+aOEcy7twhkZ72DQOa9ELgSmq6yJdNWHqivWrVuX FAwGpL+xuMw346K8QpRgRf4wSvq75FFeIbJ8mj8OHhwNrs475EGRxUSnvNIUzitjANBrlogwl/LH hlxd50q+kF+VxYxIorxCRLqUP9a0+v0tSv9sqbaYEZRXiKlk5w+jVF3MCMorJCaq5A+jVF9MUF4h 0VIpfxhlh8WMiOSVfQBClFdIdy5cuHBizerVh1XKH0bZaTEjiiivkK5ckT9yZc8TCzsuJiivkCup nj+MsutiRlBecbmTJ07uX7N6TZvq+cMouy9mBOUVl7Fb/jDKKYsZQXnF4eyaP4xy2mKC8opz/fPQ od3vrFufbMf8YZQTFzOC8opDOCF/GOXkxYzonFcKAFwneyDSM07KH0a5YTFBecV+nJY/jHLLYkZQ XlFcR/5YtarN39rq6v9v3LaYEZG8sh2tF65HfKqr7iapiAdaWv74xzW7jp84OZaerHPxPwBvu7iv 9a17U1p+XJAb2PwU0NYoeyR30oMIfvRztP705oRbjz85MAO122WPpIKoP2OEc54AoNnccSzA9dpg +YqqwLbvj0enD4BhSTnwjl0A7xceBJhrf19ZSj+6FYHNC6Gf2XfZ39ewot2b2L3JQXgLpA0XJY3r pY/Nnbsz1uO4aTEDoWPbtretfuAWtF7o9sIDLecW+Ca9AC13lLXTuQhv/ASBbd9HqPK33X6NDi34 DzZpewUbXwKwDEsHjAEtphHNdbv8b92Xzuv29PBSPQZP8Vfgu20RWBLVFdMEWxAsX4lA+Q+BYGuP vqUViQ3rcf/Hp7QBtrj0jhazJ/S2msC7s+uCe38b3TN8vkT4Rj4G76jZgIfqSixC1e8gsGE+eOPx qL7/NPL2/0Wb2daGhJtNH85EtJhX1xQ88KedgXUPj0HIH/NGsd43wDfxe/AMutOc6VxEP/0hApsW Qv9khynHq8LQ8ve0slwdnn6mHNBktJhd4/xM5Qetb943mDfXmv4Cai1/IuImLQHLHGL2oR2H++sR 3PEygrt/AvCQqccOMV/zJkwtP6yVjAZHL1MPHiNazCvwtov72tZ8I6Qf2Sz2mljNB++w/4Rv3EIg jl688jl6EMEPf4bgBy+At14QeqpGpJ1Yr808XI8cZa6hpcX8dJCu84dolFc+r7v8IdphXlSx2XNv kgp5hRazh/lDNC1nGHyTlrg6r/BzhxF4fzFCVaukzaBKXnH3YhrOH6K5NK9EkT9Ek51X3LmYodaa wF/nRJ8/RHNNXuEIVa1GYMuzUecP0WpZ/wPr2Ndarc4r7lpMzpuCVatMyx+ideSV8c/AM3iq7FFM Z3b+EM3qvOKWxRSaP0TT8ideurwvs1D2KDETmT9EszKvOH8x2y5Wtq15UA8d2WLvtwQJ5xXv2AVg 8amypzFODyD44euW5A/RLrK0k++wmdUi84pzF1MP1QZ3rrQ8f4jGemXAO3Y+vMP+yzZ5RT+6BYHN T1meP0QTmVecuJhK5A/R7JBX+LlqBN5/Xmr+EE1UXnHWYiqXP0Rj8Ay+p+P6W5ai0CWfgWYEd/5I qfwhmtl5xRmLGWqtCbw7py5YqWj+EE2ZvKJ+/hCtlvU/sB5f8/tZwtBYjmPzxeTng3t+UxHY8MRY hFrjop3BKVj6IPhufVZKXunIHxsXQD/xN8vPraJLeeWevjq0/tF8v10X09b5QzQr84qd84don+YV VjIKQIKR77XfYjolf4gmOq84KH+IFk1esc9i6qHawPYXDgX/tnwcwKM+n9t8llceApg5l3x25I9N C6Gf3W/K8dyihhVWbGL3JQbhHXytr7XDYl7KH6tmDkfbxeRoz+N2l/LKC9ByR0d9DDfkD9E4mL5b u3X7Lkwq5GCZ3X2d0ovJG4+Xt751Xw6vP5gf03QkLMq84sL8Idq18oqai+n2/CFaj/MK5Q/RziCn +h3PAw3NPGVE579XbDEpf1jpanmF8oe1rswrqizmRX6mcjvlDzk65xXKH/KE4G15n035exWGjtTA /0XyYu70tf1h6e9CNX+dHusQJAaeOHgKyhCqXk+fvyJZA8vasTW+bMbMR5Ydi/VYMeULzsH8y9If 5MCLAMuJdRhCbKr9Id2PEnp5v8ceqbtoxgFN6YoNy9PT43W2AMAcAPQYk7jJWqbxxxLmnKsx86Cm Bn//K1mDOULLOXCXmcclRDkcFQx8VsK8c1tFHF7IlThNy3qXMY7lAG4QcXxCJKoH54sT8s+9ymZA 2LNswi6R46/B19KY/jBnbDEDbPieGoRcJsgYXg/owadT5zWeEX0y4deuNi3NytV8oe9wjofc/AnW xNY26TpmJ89v+MiqE1p2UXnTy5mljOkrAYyx6pyExIThOOP86YQnzv3C+lNbiPIKsYlmDvZSIktc yuYeb5ExgJSXYfH/yU5u9ofmMfAFAJR/A2fiKkLyh1FSXx9JeYUoQ3D+MEqJFy77l2feEdL1lQwo kj0LcR1L8odRSiwmKK8Q61maP4xSZjEjmpZn9dV4aBHlFSLQJp1hVvLcho9lD9Id5RYzoiOvQF8B hrGyZyGOcYyBPyMjfxil7GKC8goxz6X80Zi6hC2q8csepieUXswIyiskBmsZ548mzDt3RPYgRthi MSP8L6YWcK9nOeeYInsWorzdjGFWwtyG92QPEg1bLWYE5RVyFUrmD6NsuZigvEI+T+n8YZRtFzOC 8gqxQ/4wyvaLGdG0LG0k07WVlFdcxTb5wyjHLCYuyytsKYA+suchwtgufxjlqMWM4C/lJDVrgfmU VxzJlvnDKEcuZgTlFUexdf4wytGLGRHOKysYUCx7FmKYI/KHUa5YTFBesSNH5Q+jXLOYEZRXbICx jaEQn5Uyv2GP7FFkcd1iRlBeUZJj84dRrl1MUF5RiePzh1GuXswIyitSuSJ/GEWL2Yn/xdQC3eNZ BuBu2bO4wG7G8XjCvIb3ZQ+iIlrMLlBeEcqV+cMoWsxuUF4x3aX8ERd8KvXRxrOyh1EdLeY1UF4x AeUPw2gxe6jp5bQRjGkrAYyTPYuN/BNgCxOfqP+97EHshhbTAMorPUb5I0a0mFGgvNItDuBN5sW8 hFkNR2UPY2e0mDGgvHKZXYxjFuUPc9BimsDVeYXjLMCfp/xhLlpMk7gwrwQA9mN/gD+XsaDhvOxh nIYW02QXX8zu4/EGv+vsvMI2hHQ+m/KHOLSYgjg0r1D+sAgtpkCcg7Usy/gywF8BkCd7nhhQ/rAY LaYFbJxXKH9IQotpIf+y1Bt17vkBgPtlz9IDlD8kosWUwL888w6u6z/kQInsWT6H8ocSaDElieQV xth3OZAmex7KH2qhxZTswqspmd5W33MAf1ReXmEbQgyzUubW75VzfnIlWkxFhPPKCgDjLTztIYA9 RflDPbSYCrEwrzRxsJcpf6iLFlNBAvMK5Q+boMVUmMl5ZRc0PJ44p2GbCccigtFi2kDLK2mTAW1F VHmF8oct0WLaRBR5hfKHjdFi2kynvPIIAE/XX0X5w+5oMW2qaXna8I7PXrk8r1D+cAhaTBv77M3B 8DTAXk9obFjOFqFN9lwkdv8fAAD//9w6v4B97QNuAAAAAElFTkSuQmCC "
     id="image10"
     x="0"
     y="0" />
  <text
     xml:space="preserve"
     style="font-style:normal;font-weight:normal;font-size:7.70102644px;line-height:1.25;font-family:sans-serif;letter-spacing:0px;word-spacing:0px;fill:#000000;fill-opacity:1;stroke:none;stroke-width:0.64175224"
     x="7.2237563"
     y="111.98425"
     id="text3717"
     transform="scale(0.94438989,1.0588847)"
     inkscape:transform-center-x="22.161114"
     inkscape:transform-center-y="-4.2708847"><tspan
       sodipodi:role="line"
       id="tspan3715"
       x="7.2237563"
       y="111.98425"
       style="stroke-width:0.64175224">  <tspan
   style="font-size:18.82473183px;stroke-width:0.64175224"
   id="tspan3721">ISAAKiel</tspan></tspan><tspan
       sodipodi:role="line"
       x="7.2237563"
       y="125.36668"
       id="tspan3719"
       style="stroke-width:0.64175224">Archaeology that counts</tspan></text>
</svg>
