<?xml version="1.0" encoding="UTF-8"?>
<graphml xmlns="http://graphml.graphdrawing.org/xmlns"
         xmlns:xsi="http://www.w3.org/2001/XMLSchema-instance"
         xsi:schemaLocation="http://graphml.graphdrawing.org/xmlns
         http://graphml.graphdrawing.org/xmlns/1.0/graphml.xsd">
<!-- Created by igraph -->
  <key id="v_name" for="node" attr.name="name" attr.type="string"/>
  <key id="e_weight" for="edge" attr.name="weight" attr.type="double"/>
  <graph id="G" edgedefault="undirected">
    <node id="n0">
      <data key="v_name">1</data>
    </node>
    <node id="n1">
      <data key="v_name">2</data>
    </node>
    <node id="n2">
      <data key="v_name">3</data>
    </node>
    <node id="n3">
      <data key="v_name">4</data>
    </node>
    <node id="n4">
      <data key="v_name">5</data>
    </node>
    <node id="n5">
      <data key="v_name">6</data>
    </node>
    <node id="n6">
      <data key="v_name">7</data>
    </node>
    <node id="n7">
      <data key="v_name">8</data>
    </node>
    <node id="n8">
      <data key="v_name">9</data>
    </node>
    <node id="n9">
      <data key="v_name">10</data>
    </node>
    <node id="n10">
      <data key="v_name">11</data>
    </node>
    <node id="n11">
      <data key="v_name">12</data>
    </node>
    <edge source="n0" target="n2">
      <data key="e_weight">0.5</data>
    </edge>
    <edge source="n0" target="n3">
      <data key="e_weight">0.5</data>
    </edge>
    <edge source="n0" target="n10">
      <data key="e_weight">0.5</data>
    </edge>
    <edge source="n1" target="n4">
      <data key="e_weight">0.5</data>
    </edge>
    <edge source="n1" target="n5">
      <data key="e_weight">0.83</data>
    </edge>
    <edge source="n1" target="n6">
      <data key="e_weight">0.83</data>
    </edge>
    <edge source="n1" target="n9">
      <data key="e_weight">0.5</data>
    </edge>
    <edge source="n2" target="n3">
      <data key="e_weight">0.67</data>
    </edge>
    <edge source="n2" target="n4">
      <data key="e_weight">0.5</data>
    </edge>
    <edge source="n2" target="n5">
      <data key="e_weight">0.5</data>
    </edge>
    <edge source="n2" target="n6">
      <data key="e_weight">0.5</data>
    </edge>
    <edge source="n2" target="n7">
      <data key="e_weight">0.67</data>
    </edge>
    <edge source="n2" target="n8">
      <data key="e_weight">0.67</data>
    </edge>
    <edge source="n2" target="n9">
      <data key="e_weight">0.83</data>
    </edge>
    <edge source="n2" target="n10">
      <data key="e_weight">0.67</data>
    </edge>
    <edge source="n2" target="n11">
      <data key="e_weight">0.5</data>
    </edge>
    <edge source="n3" target="n4">
      <data key="e_weight">0.5</data>
    </edge>
    <edge source="n3" target="n5">
      <data key="e_weight">0.5</data>
    </edge>
    <edge source="n3" target="n6">
      <data key="e_weight">0.5</data>
    </edge>
    <edge source="n3" target="n7">
      <data key="e_weight">0.67</data>
    </edge>
    <edge source="n3" target="n8">
      <data key="e_weight">0.67</data>
    </edge>
    <edge source="n3" target="n9">
      <data key="e_weight">0.83</data>
    </edge>
    <edge source="n3" target="n10">
      <data key="e_weight">0.67</data>
    </edge>
    <edge source="n4" target="n5">
      <data key="e_weight">0.67</data>
    </edge>
    <edge source="n4" target="n6">
      <data key="e_weight">0.67</data>
    </edge>
    <edge source="n4" target="n10">
      <data key="e_weight">0.5</data>
    </edge>
    <edge source="n5" target="n6">
      <data key="e_weight">1</data>
    </edge>
    <edge source="n5" target="n7">
      <data key="e_weight">0.5</data>
    </edge>
    <edge source="n5" target="n8">
      <data key="e_weight">0.5</data>
    </edge>
    <edge source="n5" target="n9">
      <data key="e_weight">0.67</data>
    </edge>
    <edge source="n6" target="n7">
      <data key="e_weight">0.5</data>
    </edge>
    <edge source="n6" target="n8">
      <data key="e_weight">0.5</data>
    </edge>
    <edge source="n6" target="n9">
      <data key="e_weight">0.67</data>
    </edge>
    <edge source="n7" target="n8">
      <data key="e_weight">1</data>
    </edge>
    <edge source="n7" target="n9">
      <data key="e_weight">0.83</data>
    </edge>
    <edge source="n7" target="n10">
      <data key="e_weight">0.67</data>
    </edge>
    <edge source="n7" target="n11">
      <data key="e_weight">0.5</data>
    </edge>
    <edge source="n8" target="n9">
      <data key="e_weight">0.83</data>
    </edge>
    <edge source="n8" target="n10">
      <data key="e_weight">0.67</data>
    </edge>
    <edge source="n8" target="n11">
      <data key="e_weight">0.5</data>
    </edge>
    <edge source="n9" target="n10">
      <data key="e_weight">0.5</data>
    </edge>
    <edge source="n10" target="n11">
      <data key="e_weight">0.5</data>
    </edge>
  </graph>
</graphml>
